<svg width="14" height="22" viewBox="0 0 14 22" fill="none" xmlns="http://www.w3.org/2000/svg">
<path d="M1 4.2735H9.72743C10.5954 4.2735 11.4279 4.61831 12.0416 5.23208C12.6554 5.84584 13.0002 6.67829 13.0002 7.54629C13.0002 8.41428 12.6554 9.24673 12.0416 9.8605C11.4279 10.4743 10.5954 10.8191 9.72743 10.8191C10.5954 10.8191 11.4279 11.1639 12.0416 11.7776C12.6554 12.3914 13.0002 13.2239 13.0002 14.0919C13.0002 14.9599 12.6554 15.7923 12.0416 16.4061C11.4279 17.0198 10.5954 17.3646 9.72743 17.3646H1" stroke="black" stroke-width="1.6" stroke-linecap="round" stroke-linejoin="round"/>
<path d="M3.18164 4.2735V17.3646" stroke="black" stroke-width="1.6" stroke-linecap="round" stroke-linejoin="round"/>
<path d="M3.18164 10.8185H9.72721" stroke="black" stroke-width="1.6" stroke-linecap="round" stroke-linejoin="round"/>
<path d="M4.27344 1V4.27279" stroke="black" stroke-width="1.6" stroke-linecap="round" stroke-linejoin="round"/>
<path d="M8.63672 1V4.27279" stroke="black" stroke-width="1.6" stroke-linecap="round" stroke-linejoin="round"/>
<path d="M4.27344 17.3636V20.6364" stroke="black" stroke-width="1.6" stroke-linecap="round" stroke-linejoin="round"/>
<path d="M8.63672 17.3636V20.6364" stroke="black" stroke-width="1.6" stroke-linecap="round" stroke-linejoin="round"/>
</svg>
