<svg width="29" height="23" viewBox="0 0 29 23" fill="none" xmlns="http://www.w3.org/2000/svg">
<path d="M11.4021 1L6.57705 8.89895M18.0528 1L22.641 8.89895M1.45703 8.85612L4.16515 8.85779M27.9283 8.8725H25.305M4.16515 8.85779L5.31082 20.2818C5.41333 21.304 6.27355 22.0823 7.30084 22.0823H22.1351C23.16 22.0823 24.019 21.3075 24.1245 20.288L25.305 8.8725M4.16515 8.85779L25.305 8.8725M9.37705 12.9501V18.1744M14.7193 12.9501L14.6013 18.1744M19.984 12.9501V18.1953" stroke="white" stroke-width="1.6" stroke-linecap="round" stroke-linejoin="round"/>
</svg>
