<svg width="16" height="13" viewBox="0 0 16 13" fill="none" xmlns="http://www.w3.org/2000/svg">
<path d="M6.25971 1L3.70785 5.1214M9.7771 1L12.2037 5.1214M1 5.09905L2.43226 5.09993M15 5.1076H13.6126M2.43226 5.09993L2.95092 10.2023C3.05471 11.2232 3.91442 12 4.94067 12H11.0888C12.1126 12 12.9712 11.2268 13.0779 10.2085L13.6126 5.1076M2.43226 5.09993L13.6126 5.1076" stroke="black" stroke-linecap="round" stroke-linejoin="round"/>
</svg>
