<svg width="16" height="13" viewBox="0 0 16 13" fill="none" xmlns="http://www.w3.org/2000/svg">
<path fill-rule="evenodd" clip-rule="evenodd" d="M7.99855 3.4215L7.11932 2.56566C6.44583 1.9101 5.45705 1.21333 4.45964 1.21333C3.42563 1.21333 2.63064 1.54481 2.10306 2.03451C1.57995 2.52006 1.24444 3.22947 1.24444 4.13901C1.24444 5.1102 1.64484 5.94841 2.36635 6.78495C3.11185 7.6493 4.12163 8.42496 5.2463 9.28195L5.24681 9.28233C5.26631 9.29721 5.28588 9.31213 5.30549 9.32709C6.18211 9.99568 7.16625 10.7463 7.99911 11.5833C8.84027 10.7386 9.8341 9.98174 10.719 9.30782L10.753 9.28192C10.7531 9.28187 10.7531 9.28182 10.7532 9.28177C11.8775 8.42509 12.8874 7.64966 13.6331 6.78531C14.3549 5.94873 14.7556 5.11039 14.7556 4.13901C14.7556 3.22947 14.42 2.52003 13.897 2.03446C13.3694 1.54475 12.5746 1.21333 11.5411 1.21333C10.5422 1.21333 9.55029 1.91104 8.87778 2.56566L7.99855 3.4215ZM11.5193 10.238C10.4785 11.0306 9.40291 11.851 8.576 12.7599C8.43782 12.9114 8.23491 13 8.02036 13H7.97818C7.76436 13 7.56073 12.9121 7.42182 12.7599C6.60035 11.8553 5.53039 11.0392 4.49507 10.2495L4.48 10.238C2.27709 8.55936 0 6.82395 0 4.13901C0 1.70227 1.83345 0 4.45964 0C5.98327 0 7.28291 1.0104 7.99855 1.707C8.71418 1.0104 10.0167 0 11.5411 0C14.1665 0 16 1.70227 16 4.13901C16 6.82393 13.7226 8.55914 11.521 10.2367L11.5193 10.238Z" fill="white"/>
</svg>
