<svg width="8" height="6" viewBox="0 0 8 6" fill="none" xmlns="http://www.w3.org/2000/svg">
<path d="M1 3L3 5L7 1" stroke="#2DB3FF" stroke-width="1.6" stroke-linecap="round" stroke-linejoin="round"/>
</svg>
