<svg width="68" height="68" viewBox="0 0 68 68" fill="none" xmlns="http://www.w3.org/2000/svg">
<path d="M33.547 64.0939C50.4176 64.0939 64.0939 50.4176 64.0939 33.547C64.0939 16.6763 50.4176 3 33.547 3C16.6763 3 3 16.6763 3 33.547C3 50.4176 16.6763 64.0939 33.547 64.0939Z" stroke="#F76310" stroke-width="6" stroke-linecap="round" stroke-linejoin="round"/>
<path d="M23.3643 26.7592H23.3968" stroke="#F76310" stroke-width="6" stroke-linecap="round" stroke-linejoin="round"/>
<path d="M43.7285 26.7592H43.7611" stroke="#F76310" stroke-width="6" stroke-linecap="round" stroke-linejoin="round"/>
<path d="M25.0625 43.7288C26.1686 44.8577 27.4888 45.7545 28.9458 46.3668C30.4028 46.979 31.9673 47.2944 33.5478 47.2944C35.1282 47.2944 36.6927 46.979 38.1497 46.3668C39.6068 45.7545 40.927 44.8577 42.033 43.7288" stroke="#F76310" stroke-width="6" stroke-linecap="round" stroke-linejoin="round"/>
</svg>
