<svg width="18" height="12" viewBox="0 0 18 12" fill="none" xmlns="http://www.w3.org/2000/svg">
<path d="M13 1L13 5L9 5L9 1L13 1Z" stroke="#F66310" stroke-width="1.6" stroke-linecap="round" stroke-linejoin="round"/>
<path d="M17 3L13 3" stroke="#F66310" stroke-width="1.6" stroke-linecap="round" stroke-linejoin="round"/>
<path d="M9 3L1 3" stroke="#F66310" stroke-width="1.6" stroke-linecap="round" stroke-linejoin="round"/>
<path d="M7 7L7 11L3 11L3 7L7 7Z" stroke="#F66310" stroke-width="1.6" stroke-linecap="round" stroke-linejoin="round"/>
<path d="M17 9L7 9" stroke="#F66310" stroke-width="1.6" stroke-linecap="round" stroke-linejoin="round"/>
<path d="M3 9L1 9" stroke="#F66310" stroke-width="1.6" stroke-linecap="round" stroke-linejoin="round"/>
</svg>
