<svg width="4" height="14" viewBox="0 0 4 14" fill="none" xmlns="http://www.w3.org/2000/svg">
<path d="M0.8 0.399999H2.78V8.95H0.8V0.399999ZM1.79 13.198C1.382 13.198 1.04 13.06 0.764 12.784C0.488 12.508 0.35 12.166 0.35 11.758C0.35 11.338 0.488 10.996 0.764 10.732C1.04 10.456 1.382 10.318 1.79 10.318C2.198 10.318 2.54 10.456 2.816 10.732C3.092 10.996 3.23 11.338 3.23 11.758C3.23 12.166 3.092 12.508 2.816 12.784C2.54 13.06 2.198 13.198 1.79 13.198Z" fill="#F76310"/>
</svg>
